1996/02/26 07:40:00.00 48.7539698 -4.5195195
1996/02/26 08:00:00.00 53.7702524 -4.2555627
1996/02/26 08:20:00.00 58.7873608 -3.9997397
1996/02/26 08:40:00.00 63.8054128 -3.7540275
1996/02/26 09:00:00.00 68.8244967 -3.5203280
1996/02/26 09:20:00.00 73.8446671 -3.3004530
1996/02/26 09:40:00.00 78.8659412 -3.0961098
1996/02/26 10:00:00.00 83.8882968 -2.9088868
1996/02/26 10:20:00.00 88.9116713 -2.7402413